skeleton/main/simres.vcd
$date
	Tue Jun 13 17:20:04 2023
$end
$version
	Icarus Verilog
$end
$timescale
	1s
$end
$scope module ProcessorTestbench $end
$var reg 1 ! clk $end
$var reg 1 " reset $end
$var integer 32 # i [31:0] $end
$scope module proc $end
$var wire 1 ! clk $end
$var wire 1 " reset $end
$var wire 32 $ writedata [31:0] $end
$var wire 32 % readdata [31:0] $end
$var wire 32 & pc [31:0] $end
$var wire 32 ' instr [31:0] $end
$var wire 1 ( datawrite $end
$var wire 32 ) dataaddr [31:0] $end
$scope module dmem $end
$var wire 6 * addr [5:0] $end
$var wire 1 ! clk $end
$var wire 32 + rd [31:0] $end
$var wire 1 ( we $end
$var wire 32 , wd [31:0] $end
$upscope $end
$scope module imem $end
$var wire 6 - addr [5:0] $end
$var wire 32 . rd [31:0] $end
$upscope $end
$scope module mips $end
$var wire 1 ! clk $end
$var wire 32 / instr [31:0] $end
$var wire 32 0 readdata [31:0] $end
$var wire 1 " reset $end
$var wire 1 1 zero $end
$var wire 32 2 writedata [31:0] $end
$var wire 1 3 regwrite $end
$var wire 32 4 pc [31:0] $end
$var wire 1 ( memwrite $end
$var wire 1 5 memtoreg $end
$var wire 1 6 dojump $end
$var wire 1 7 dobranch $end
$var wire 5 8 destreg [4:0] $end
$var wire 1 9 alusrcbimm $end
$var wire 32 : aluout [31:0] $end
$var wire 3 ; alucontrol [2:0] $end
$scope module decoder $end
$var wire 32 < instr [31:0] $end
$var wire 1 1 zero $end
$var wire 6 = op [5:0] $end
$var wire 6 > funct [5:0] $end
$var reg 3 ? alucontrol [2:0] $end
$var reg 1 9 alusrcbimm $end
$var reg 5 @ destreg [4:0] $end
$var reg 1 7 dobranch $end
$var reg 1 6 dojump $end
$var reg 1 5 memtoreg $end
$var reg 1 ( memwrite $end
$var reg 1 3 regwrite $end
$upscope $end
$scope module dp $end
$var wire 3 A alucontrol [2:0] $end
$var wire 1 9 alusrcbimm $end
$var wire 1 ! clk $end
$var wire 5 B destreg [4:0] $end
$var wire 1 7 dobranch $end
$var wire 32 C instr [31:0] $end
$var wire 1 6 jump $end
$var wire 1 5 memtoreg $end
$var wire 32 D readdata [31:0] $end
$var wire 1 3 regwrite $end
$var wire 1 " reset $end
$var wire 32 E writedata [31:0] $end
$var wire 32 F zero_left_wire [31:0] $end
$var wire 1 1 zero $end
$var wire 32 G srcbimm [31:0] $end
$var wire 32 H srcb [31:0] $end
$var wire 32 I srca [31:0] $end
$var wire 32 J signimm [31:0] $end
$var wire 32 K result [31:0] $end
$var wire 32 L pc [31:0] $end
$var wire 32 M paddwire [31:0] $end
$var wire 32 N aluout [31:0] $end
$scope module alu $end
$var wire 32 O a_and_b [31:0] $end
$var wire 32 P a_or_b [31:0] $end
$var wire 3 Q alucontrol [2:0] $end
$var wire 32 R b [31:0] $end
$var wire 1 S first_xor $end
$var wire 1 T second_xor $end
$var wire 1 1 zero $end
$var wire 32 U sum [31:0] $end
$var wire 32 V result [31:0] $end
$var wire 32 W extend [31:0] $end
$var wire 32 X b_multi [31:0] $end
$var wire 32 Y a [31:0] $end
$upscope $end
$scope module back $end
$var wire 16 Z a [15:0] $end
$var wire 32 [ y [31:0] $end
$upscope $end
$scope module gpr $end
$var wire 1 ! clk $end
$var wire 5 \ ra1 [4:0] $end
$var wire 5 ] ra2 [4:0] $end
$var wire 5 ^ wa3 [4:0] $end
$var wire 32 _ wd3 [31:0] $end
$var wire 1 3 we3 $end
$var wire 32 ` rd2 [31:0] $end
$var wire 32 a rd1 [31:0] $end
$upscope $end
$scope module padd $end
$var wire 16 b a [15:0] $end
$var wire 32 c y [31:0] $end
$upscope $end
$scope module pcenv $end
$var wire 32 d aluResult [31:0] $end
$var wire 1 ! clk $end
$var wire 1 7 dobranch $end
$var wire 1 6 dojump $end
$var wire 26 e jumptarget [25:0] $end
$var wire 6 f opCode [5:0] $end
$var wire 32 g progcounter [31:0] $end
$var wire 1 " reset $end
$var wire 32 h nextpc [31:0] $end
$var wire 32 i incpc [31:0] $end
$var wire 32 j branchpc [31:0] $end
$var wire 32 k branchoffset [31:0] $end
$var reg 32 l pc [31:0] $end
$scope module pcbranch $end
$var wire 32 m b [31:0] $end
$var wire 1 n cin $end
$var wire 32 o y [31:0] $end
$var wire 1 p cout $end
$var wire 32 q a [31:0] $end
$upscope $end
$scope module pcinc $end
$var wire 32 r a [31:0] $end
$var wire 32 s b [31:0] $end
$var wire 1 t cin $end
$var wire 32 u y [31:0] $end
$var wire 1 v cout $end
$upscope $end
$upscope $end
$scope module se $end
$var wire 16 w a [15:0] $end
$var wire 32 x y [31:0] $end
$upscope $end
$upscope $end
$upscope $end
$upscope $end
$upscope $end
$enddefinitions $end
#0
$dumpvars
b1001000110100 x
b1001000110100 w
0v
b10000000000000000000100 u
0t
b100 s
b10000000000000000000000 r
b10000000000000000000100 q
0p
b10000000100100011010100 o
0n
b100100011010000 m
b10000000000000000000000 l
b1001000110100 k
b10000000100100011010100 j
b10000000000000000000100 i
b10000000000000000000100 h
b10000000000000000000000 g
b1111 f
b10001001000110100 e
b10010001101000000000000000000 d
b1001000110100 c
b1001000110100 b
b0 a
b11001010111111101011101010111110 `
b10010001101000000000000000000 _
b1 ^
b1 ]
b0 \
b10010001101000000000000000000 [
b1001000110100 Z
b0 Y
b10010001101000000000000000000 X
b0 W
b10010001101000000000000000000 V
b10010001101000000000000000000 U
0T
0S
b10010001101000000000000000000 R
b10 Q
b10010001101000000000000000000 P
b0 O
b10010001101000000000000000000 N
b10010001101000000000000000000 M
b10000000000000000000000 L
b10010001101000000000000000000 K
b1001000110100 J
b0 I
b11001010111111101011101010111110 H
b10010001101000000000000000000 G
b1001000110100 F
b11001010111111101011101010111110 E
bx D
b111100000000010001001000110100 C
b1 B
b10 A
b1 @
b10 ?
b110100 >
b1111 =
b111100000000010001001000110100 <
b10 ;
b10010001101000000000000000000 :
19
b1 8
07
06
05
b10000000000000000000000 4
13
b11001010111111101011101010111110 2
01
bx 0
b111100000000010001001000110100 /
b111100000000010001001000110100 .
b0 -
b11001010111111101011101010111110 ,
bx +
b0 *
b10010001101000000000000000000 )
0(
b111100000000010001001000110100 '
b10000000000000000000000 &
bx %
b11001010111111101011101010111110 $
b100000 #
1"
1!
$end
#2
0!
#4
b10010001101000000000000000000 $
b10010001101000000000000000000 ,
b10010001101000000000000000000 2
b10010001101000000000000000000 E
b10010001101000000000000000000 H
b10010001101000000000000000000 `
1!
#5
0"
#6
0!
#8
b10010001101000001001000110100 K
b10010001101000001001000110100 _
b1101 *
b10010001101000001001000110100 )
b10010001101000001001000110100 :
b10010001101000001001000110100 N
b10010001101000001001000110100 V
b10010001101000001001000110100 d
b10010001101000001001000110100 P
b10000000000000000001000 h
b1001000110100 X
b10010001101000001001000110100 U
b0 O
b1001000110100 G
b1001000110100 R
b10010001101000000000000000000 I
b10010001101000000000000000000 Y
b10010001101000000000000000000 a
b10000000100100011011000 j
b10000000100100011011000 o
b1 ;
b1 ?
b1 A
b1 Q
b1101 =
b1000010001001000110100 e
b1101 f
b1 \
b10000000000000000001000 i
b10000000000000000001000 q
b10000000000000000001000 u
b110100001000010001001000110100 '
b110100001000010001001000110100 .
b110100001000010001001000110100 /
b110100001000010001001000110100 <
b110100001000010001001000110100 C
b1 -
b10000000000000000000100 &
b10000000000000000000100 4
b10000000000000000000100 L
b10000000000000000000100 g
b10000000000000000000100 l
b10000000000000000000100 r
1!
#10
0!
#12
b1 *
b100 X
b100 )
b100 :
b100 N
b100 V
b100 d
b100 G
b100 R
b10000000000000000001100 h
b100 P
bx K
bx _
b10000 m
b100 U
b0 O
b10000000000000000011100 j
b10000000000000000011100 o
b10 ;
b10 ?
b10 A
b10 Q
15
1(
03
b101011 =
b100 >
b10000000000000100 e
b101011 f
b100 J
b100 k
b100 x
b100 w
b1000000000000000000 M
b1000000000000000000 [
b100 Z
b100 F
b100 c
b100 b
b0 \
b0 I
b0 Y
b0 a
b10010001101000001001000110100 $
b10010001101000001001000110100 ,
b10010001101000001001000110100 2
b10010001101000001001000110100 E
b10010001101000001001000110100 H
b10010001101000001001000110100 `
b10000000000000000001100 i
b10000000000000000001100 q
b10000000000000000001100 u
b10101100000000010000000000000100 '
b10101100000000010000000000000100 .
b10101100000000010000000000000100 /
b10101100000000010000000000000100 <
b10101100000000010000000000000100 C
b10 -
b10000000000000000001000 &
b10000000000000000001000 4
b10000000000000000001000 L
b10000000000000000001000 g
b10000000000000000001000 l
b10000000000000000001000 r
1!
#14
0!
#16
b101111 *
b11001010111111101011101010111110 )
b11001010111111101011101010111110 :
b11001010111111101011101010111110 N
b11001010111111101011101010111110 V
b11001010111111101011101010111110 d
b0 X
b0 G
b0 R
1S
b10000000000000000010000 h
b11001010111111101011101010111110 U
b11001010111111101011101010111110 P
b0 O
b10000010000100 m
b11001010111111101011101010111110 I
b11001010111111101011101010111110 Y
b11001010111111101011101010111110 a
b0 $
b0 ,
b0 2
b0 E
b0 H
b0 `
b10000000010000010010100 j
b10000000010000010010100 o
05
0(
09
13
b0 =
b100001 >
b10000000000100000100001 e
b0 f
b100000100001 J
b100000100001 k
b100000100001 x
b100000100001 w
b1000001000010000000000000000 M
b1000001000010000000000000000 [
b100000100001 Z
b100000100001 F
b100000100001 c
b100000100001 b
b10 \
b0 ]
b10000000000000000010000 i
b10000000000000000010000 q
b10000000000000000010000 u
b10000000000100000100001 '
b10000000000100000100001 .
b10000000000100000100001 /
b10000000000100000100001 <
b10000000000100000100001 C
b11 -
b11001010111111101011101010111110 K
b11001010111111101011101010111110 _
b10000000000000000001100 &
b10000000000000000001100 4
b10000000000000000001100 L
b10000000000000000001100 g
b10000000000000000001100 l
b10000000000000000001100 r
bx %
bx +
bx 0
bx D
1!
#18
0!
#20
b10000000000000000010100 h
b100000010000100 m
b10000000100000010011000 j
b10000000100000010011000 o
b10 8
b10 @
b10 B
b10 ^
b11000000001000000100001 e
b1000000100001 J
b1000000100001 k
b1000000100001 x
b1000000100001 w
b10000001000010000000000000000 M
b10000001000010000000000000000 [
b1000000100001 Z
b1000000100001 F
b1000000100001 c
b1000000100001 b
b11 \
b10000000000000000010100 i
b10000000000000000010100 q
b10000000000000000010100 u
b11000000001000000100001 '
b11000000001000000100001 .
b11000000001000000100001 /
b11000000001000000100001 <
b11000000001000000100001 C
b100 -
b10000000000000000010000 &
b10000000000000000010000 4
b10000000000000000010000 L
b10000000000000000010000 g
b10000000000000000010000 l
b10000000000000000010000 r
1!
#22
0!
#24
x1
bx K
bx _
bx *
b11001010111111101011101010111110 X
bx )
bx :
bx N
bx V
bx d
b11001010111111101011101010111110 G
b11001010111111101011101010111110 R
1S
b10000000000000000001000 h
b11001010111111101011101010111110 U
b11001010111111101011101010111110 P
b1000 m
b0 I
b0 Y
b0 a
b11001010111111101011101010111110 $
b11001010111111101011101010111110 ,
b11001010111111101011101010111110 2
b11001010111111101011101010111110 E
b11001010111111101011101010111110 H
b11001010111111101011101010111110 `
b10000000000000000100000 j
b10000000000000000100000 o
b11 ;
b11 ?
b11 A
b11 Q
16
bx 8
bx @
bx B
bx ^
03
b10 =
b10 >
b100000000000000000010 e
b10 f
b10 J
b10 k
b10 x
b10 w
b100000000000000000 M
b100000000000000000 [
b10 Z
b10 F
b10 c
b10 b
b0 \
b10000 ]
b10000000000000000011000 i
b10000000000000000011000 q
b10000000000000000011000 u
b1000000100000000000000000010 '
b1000000100000000000000000010 .
b1000000100000000000000000010 /
b1000000100000000000000000010 <
b1000000100000000000000000010 C
b101 -
b10000000000000000010100 &
b10000000000000000010100 4
b10000000000000000010100 L
b10000000000000000010100 g
b10000000000000000010100 l
b10000000000000000010100 r
1!
#26
0!
#28
b10010001101000001001000110100 K
b10010001101000001001000110100 _
b10010001101000001001000110100 %
b10010001101000001001000110100 +
b10010001101000001001000110100 0
b10010001101000001001000110100 D
0S
01
b1 *
b100 U
b100 P
b100 )
b100 :
b100 N
b100 V
b100 d
b100 X
b100 G
b100 R
b10000000000000000001100 h
b10000 m
b10000000000000000011100 j
b10000000000000000011100 o
b10 ;
b10 ?
b10 A
b10 Q
06
15
1(
19
b1 8
b1 @
b1 B
b1 ^
b101011 =
b100 >
b10000000000000100 e
b101011 f
b100 J
b100 k
b100 x
b100 w
b1000000000000000000 M
b1000000000000000000 [
b100 Z
b100 F
b100 c
b100 b
b1 ]
b10000000000000000001100 i
b10000000000000000001100 q
b10000000000000000001100 u
b10101100000000010000000000000100 '
b10101100000000010000000000000100 .
b10101100000000010000000000000100 /
b10101100000000010000000000000100 <
b10101100000000010000000000000100 C
b10 -
b10000000000000000001000 &
b10000000000000000001000 4
b10000000000000000001000 L
b10000000000000000001000 g
b10000000000000000001000 l
b10000000000000000001000 r
1!
#30
0!
#32
b101111 *
b11001010111111101011101010111110 )
b11001010111111101011101010111110 :
b11001010111111101011101010111110 N
b11001010111111101011101010111110 V
b11001010111111101011101010111110 d
b0 X
b0 G
b0 R
1S
b10000000000000000010000 h
b11001010111111101011101010111110 U
b11001010111111101011101010111110 P
b0 O
b10000010000100 m
b11001010111111101011101010111110 I
b11001010111111101011101010111110 Y
b11001010111111101011101010111110 a
b0 $
b0 ,
b0 2
b0 E
b0 H
b0 `
b10000000010000010010100 j
b10000000010000010010100 o
05
0(
09
13
b0 =
b100001 >
b10000000000100000100001 e
b0 f
b100000100001 J
b100000100001 k
b100000100001 x
b100000100001 w
b1000001000010000000000000000 M
b1000001000010000000000000000 [
b100000100001 Z
b100000100001 F
b100000100001 c
b100000100001 b
b10 \
b0 ]
b10000000000000000010000 i
b10000000000000000010000 q
b10000000000000000010000 u
b10000000000100000100001 '
b10000000000100000100001 .
b10000000000100000100001 /
b10000000000100000100001 <
b10000000000100000100001 C
b11 -
b11001010111111101011101010111110 K
b11001010111111101011101010111110 _
b10000000000000000001100 &
b10000000000000000001100 4
b10000000000000000001100 L
b10000000000000000001100 g
b10000000000000000001100 l
b10000000000000000001100 r
bx %
bx +
bx 0
bx D
1!
#34
0!
#36
b10000000000000000010100 h
b100000010000100 m
b10000000100000010011000 j
b10000000100000010011000 o
b10 8
b10 @
b10 B
b10 ^
b11000000001000000100001 e
b1000000100001 J
b1000000100001 k
b1000000100001 x
b1000000100001 w
b10000001000010000000000000000 M
b10000001000010000000000000000 [
b1000000100001 Z
b1000000100001 F
b1000000100001 c
b1000000100001 b
b11 \
b10000000000000000010100 i
b10000000000000000010100 q
b10000000000000000010100 u
b11000000001000000100001 '
b11000000001000000100001 .
b11000000001000000100001 /
b11000000001000000100001 <
b11000000001000000100001 C
b100 -
b10000000000000000010000 &
b10000000000000000010000 4
b10000000000000000010000 L
b10000000000000000010000 g
b10000000000000000010000 l
b10000000000000000010000 r
1!
#38
0!
#40
x1
bx K
bx _
bx *
b11001010111111101011101010111110 X
bx )
bx :
bx N
bx V
bx d
b11001010111111101011101010111110 G
b11001010111111101011101010111110 R
1S
b10000000000000000001000 h
b11001010111111101011101010111110 U
b11001010111111101011101010111110 P
b1000 m
b0 I
b0 Y
b0 a
b11001010111111101011101010111110 $
b11001010111111101011101010111110 ,
b11001010111111101011101010111110 2
b11001010111111101011101010111110 E
b11001010111111101011101010111110 H
b11001010111111101011101010111110 `
b10000000000000000100000 j
b10000000000000000100000 o
b11 ;
b11 ?
b11 A
b11 Q
16
bx 8
bx @
bx B
bx ^
03
b10 =
b10 >
b100000000000000000010 e
b10 f
b10 J
b10 k
b10 x
b10 w
b100000000000000000 M
b100000000000000000 [
b10 Z
b10 F
b10 c
b10 b
b0 \
b10000 ]
b10000000000000000011000 i
b10000000000000000011000 q
b10000000000000000011000 u
b1000000100000000000000000010 '
b1000000100000000000000000010 .
b1000000100000000000000000010 /
b1000000100000000000000000010 <
b1000000100000000000000000010 C
b101 -
b10000000000000000010100 &
b10000000000000000010100 4
b10000000000000000010100 L
b10000000000000000010100 g
b10000000000000000010100 l
b10000000000000000010100 r
1!
#42
0!
#44
b11001010111111101011101010111110 K
b11001010111111101011101010111110 _
b11001010111111101011101010111110 %
b11001010111111101011101010111110 +
b11001010111111101011101010111110 0
b11001010111111101011101010111110 D
0S
01
b1 *
b100 U
b100 P
b100 )
b100 :
b100 N
b100 V
b100 d
b100 X
b100 G
b100 R
b10000000000000000001100 h
b10000 m
b10000000000000000011100 j
b10000000000000000011100 o
b10 ;
b10 ?
b10 A
b10 Q
06
15
1(
19
b1 8
b1 @
b1 B
b1 ^
b101011 =
b100 >
b10000000000000100 e
b101011 f
b100 J
b100 k
b100 x
b100 w
b1000000000000000000 M
b1000000000000000000 [
b100 Z
b100 F
b100 c
b100 b
b1 ]
b10000000000000000001100 i
b10000000000000000001100 q
b10000000000000000001100 u
b10101100000000010000000000000100 '
b10101100000000010000000000000100 .
b10101100000000010000000000000100 /
b10101100000000010000000000000100 <
b10101100000000010000000000000100 C
b10 -
b10000000000000000001000 &
b10000000000000000001000 4
b10000000000000000001000 L
b10000000000000000001000 g
b10000000000000000001000 l
b10000000000000000001000 r
1!
#46
0!
#48
bx %
bx +
bx 0
bx D
b101111 *
b11001010111111101011101010111110 )
b11001010111111101011101010111110 :
b11001010111111101011101010111110 N
b11001010111111101011101010111110 V
b11001010111111101011101010111110 d
b0 X
b0 G
b0 R
1S
b10000000000000000010000 h
b11001010111111101011101010111110 U
b11001010111111101011101010111110 P
b0 O
b11001010111111101011101010111110 K
b11001010111111101011101010111110 _
b10000010000100 m
b11001010111111101011101010111110 I
b11001010111111101011101010111110 Y
b11001010111111101011101010111110 a
b0 $
b0 ,
b0 2
b0 E
b0 H
b0 `
b10000000010000010010100 j
b10000000010000010010100 o
05
0(
09
13
b0 =
b100001 >
b10000000000100000100001 e
b0 f
b100000100001 J
b100000100001 k
b100000100001 x
b100000100001 w
b1000001000010000000000000000 M
b1000001000010000000000000000 [
b100000100001 Z
b100000100001 F
b100000100001 c
b100000100001 b
b10 \
b0 ]
b10000000000000000010000 i
b10000000000000000010000 q
b10000000000000000010000 u
b10000000000100000100001 '
b10000000000100000100001 .
b10000000000100000100001 /
b10000000000100000100001 <
b10000000000100000100001 C
b11 -
b10000000000000000001100 &
b10000000000000000001100 4
b10000000000000000001100 L
b10000000000000000001100 g
b10000000000000000001100 l
b10000000000000000001100 r
1!
#50
0!
#52
b10000000000000000010100 h
b100000010000100 m
b10000000100000010011000 j
b10000000100000010011000 o
b10 8
b10 @
b10 B
b10 ^
b11000000001000000100001 e
b1000000100001 J
b1000000100001 k
b1000000100001 x
b1000000100001 w
b10000001000010000000000000000 M
b10000001000010000000000000000 [
b1000000100001 Z
b1000000100001 F
b1000000100001 c
b1000000100001 b
b11 \
b10000000000000000010100 i
b10000000000000000010100 q
b10000000000000000010100 u
b11000000001000000100001 '
b11000000001000000100001 .
b11000000001000000100001 /
b11000000001000000100001 <
b11000000001000000100001 C
b100 -
b10000000000000000010000 &
b10000000000000000010000 4
b10000000000000000010000 L
b10000000000000000010000 g
b10000000000000000010000 l
b10000000000000000010000 r
1!
#54
0!
#56
x1
bx K
bx _
bx *
b11001010111111101011101010111110 X
bx )
bx :
bx N
bx V
bx d
b11001010111111101011101010111110 G
b11001010111111101011101010111110 R
1S
b10000000000000000001000 h
b11001010111111101011101010111110 U
b11001010111111101011101010111110 P
b1000 m
b0 I
b0 Y
b0 a
b11001010111111101011101010111110 $
b11001010111111101011101010111110 ,
b11001010111111101011101010111110 2
b11001010111111101011101010111110 E
b11001010111111101011101010111110 H
b11001010111111101011101010111110 `
b10000000000000000100000 j
b10000000000000000100000 o
b11 ;
b11 ?
b11 A
b11 Q
16
bx 8
bx @
bx B
bx ^
03
b10 =
b10 >
b100000000000000000010 e
b10 f
b10 J
b10 k
b10 x
b10 w
b100000000000000000 M
b100000000000000000 [
b10 Z
b10 F
b10 c
b10 b
b0 \
b10000 ]
b10000000000000000011000 i
b10000000000000000011000 q
b10000000000000000011000 u
b1000000100000000000000000010 '
b1000000100000000000000000010 .
b1000000100000000000000000010 /
b1000000100000000000000000010 <
b1000000100000000000000000010 C
b101 -
b10000000000000000010100 &
b10000000000000000010100 4
b10000000000000000010100 L
b10000000000000000010100 g
b10000000000000000010100 l
b10000000000000000010100 r
1!
#58
0!
#60
b11001010111111101011101010111110 K
b11001010111111101011101010111110 _
b11001010111111101011101010111110 %
b11001010111111101011101010111110 +
b11001010111111101011101010111110 0
b11001010111111101011101010111110 D
0S
01
b1 *
b100 U
b100 P
b100 )
b100 :
b100 N
b100 V
b100 d
b100 X
b100 G
b100 R
b10000000000000000001100 h
b10000 m
b10000000000000000011100 j
b10000000000000000011100 o
b10 ;
b10 ?
b10 A
b10 Q
06
15
1(
19
b1 8
b1 @
b1 B
b1 ^
b101011 =
b100 >
b10000000000000100 e
b101011 f
b100 J
b100 k
b100 x
b100 w
b1000000000000000000 M
b1000000000000000000 [
b100 Z
b100 F
b100 c
b100 b
b1 ]
b10000000000000000001100 i
b10000000000000000001100 q
b10000000000000000001100 u
b10101100000000010000000000000100 '
b10101100000000010000000000000100 .
b10101100000000010000000000000100 /
b10101100000000010000000000000100 <
b10101100000000010000000000000100 C
b10 -
b10000000000000000001000 &
b10000000000000000001000 4
b10000000000000000001000 L
b10000000000000000001000 g
b10000000000000000001000 l
b10000000000000000001000 r
1!
#62
0!
#64
bx %
bx +
bx 0
bx D
b101111 *
b11001010111111101011101010111110 )
b11001010111111101011101010111110 :
b11001010111111101011101010111110 N
b11001010111111101011101010111110 V
b11001010111111101011101010111110 d
b0 X
b0 G
b0 R
1S
b10000000000000000010000 h
b11001010111111101011101010111110 U
b11001010111111101011101010111110 P
b0 O
b11001010111111101011101010111110 K
b11001010111111101011101010111110 _
b10000010000100 m
b11001010111111101011101010111110 I
b11001010111111101011101010111110 Y
b11001010111111101011101010111110 a
b0 $
b0 ,
b0 2
b0 E
b0 H
b0 `
b10000000010000010010100 j
b10000000010000010010100 o
05
0(
09
13
b0 =
b100001 >
b10000000000100000100001 e
b0 f
b100000100001 J
b100000100001 k
b100000100001 x
b100000100001 w
b1000001000010000000000000000 M
b1000001000010000000000000000 [
b100000100001 Z
b100000100001 F
b100000100001 c
b100000100001 b
b10 \
b0 ]
b10000000000000000010000 i
b10000000000000000010000 q
b10000000000000000010000 u
b10000000000100000100001 '
b10000000000100000100001 .
b10000000000100000100001 /
b10000000000100000100001 <
b10000000000100000100001 C
b11 -
b10000000000000000001100 &
b10000000000000000001100 4
b10000000000000000001100 L
b10000000000000000001100 g
b10000000000000000001100 l
b10000000000000000001100 r
1!
#66
0!
#68
b10000000000000000010100 h
b100000010000100 m
b10000000100000010011000 j
b10000000100000010011000 o
b10 8
b10 @
b10 B
b10 ^
b11000000001000000100001 e
b1000000100001 J
b1000000100001 k
b1000000100001 x
b1000000100001 w
b10000001000010000000000000000 M
b10000001000010000000000000000 [
b1000000100001 Z
b1000000100001 F
b1000000100001 c
b1000000100001 b
b11 \
b10000000000000000010100 i
b10000000000000000010100 q
b10000000000000000010100 u
b11000000001000000100001 '
b11000000001000000100001 .
b11000000001000000100001 /
b11000000001000000100001 <
b11000000001000000100001 C
b100 -
b10000000000000000010000 &
b10000000000000000010000 4
b10000000000000000010000 L
b10000000000000000010000 g
b10000000000000000010000 l
b10000000000000000010000 r
1!
#70
0!
#72
x1
bx K
bx _
bx *
b11001010111111101011101010111110 X
bx )
bx :
bx N
bx V
bx d
b11001010111111101011101010111110 G
b11001010111111101011101010111110 R
1S
b10000000000000000001000 h
b11001010111111101011101010111110 U
b11001010111111101011101010111110 P
b1000 m
b0 I
b0 Y
b0 a
b11001010111111101011101010111110 $
b11001010111111101011101010111110 ,
b11001010111111101011101010111110 2
b11001010111111101011101010111110 E
b11001010111111101011101010111110 H
b11001010111111101011101010111110 `
b10000000000000000100000 j
b10000000000000000100000 o
b11 ;
b11 ?
b11 A
b11 Q
16
bx 8
bx @
bx B
bx ^
03
b10 =
b10 >
b100000000000000000010 e
b10 f
b10 J
b10 k
b10 x
b10 w
b100000000000000000 M
b100000000000000000 [
b10 Z
b10 F
b10 c
b10 b
b0 \
b10000 ]
b10000000000000000011000 i
b10000000000000000011000 q
b10000000000000000011000 u
b1000000100000000000000000010 '
b1000000100000000000000000010 .
b1000000100000000000000000010 /
b1000000100000000000000000010 <
b1000000100000000000000000010 C
b101 -
b10000000000000000010100 &
b10000000000000000010100 4
b10000000000000000010100 L
b10000000000000000010100 g
b10000000000000000010100 l
b10000000000000000010100 r
1!
#74
0!
#76
b11001010111111101011101010111110 K
b11001010111111101011101010111110 _
b11001010111111101011101010111110 %
b11001010111111101011101010111110 +
b11001010111111101011101010111110 0
b11001010111111101011101010111110 D
0S
01
b1 *
b100 U
b100 P
b100 )
b100 :
b100 N
b100 V
b100 d
b100 X
b100 G
b100 R
b10000000000000000001100 h
b10000 m
b10000000000000000011100 j
b10000000000000000011100 o
b10 ;
b10 ?
b10 A
b10 Q
06
15
1(
19
b1 8
b1 @
b1 B
b1 ^
b101011 =
b100 >
b10000000000000100 e
b101011 f
b100 J
b100 k
b100 x
b100 w
b1000000000000000000 M
b1000000000000000000 [
b100 Z
b100 F
b100 c
b100 b
b1 ]
b10000000000000000001100 i
b10000000000000000001100 q
b10000000000000000001100 u
b10101100000000010000000000000100 '
b10101100000000010000000000000100 .
b10101100000000010000000000000100 /
b10101100000000010000000000000100 <
b10101100000000010000000000000100 C
b10 -
b10000000000000000001000 &
b10000000000000000001000 4
b10000000000000000001000 L
b10000000000000000001000 g
b10000000000000000001000 l
b10000000000000000001000 r
1!
#78
0!
#80
bx %
bx +
bx 0
bx D
b101111 *
b11001010111111101011101010111110 )
b11001010111111101011101010111110 :
b11001010111111101011101010111110 N
b11001010111111101011101010111110 V
b11001010111111101011101010111110 d
b0 X
b0 G
b0 R
1S
b10000000000000000010000 h
b11001010111111101011101010111110 U
b11001010111111101011101010111110 P
b0 O
b11001010111111101011101010111110 K
b11001010111111101011101010111110 _
b10000010000100 m
b11001010111111101011101010111110 I
b11001010111111101011101010111110 Y
b11001010111111101011101010111110 a
b0 $
b0 ,
b0 2
b0 E
b0 H
b0 `
b10000000010000010010100 j
b10000000010000010010100 o
05
0(
09
13
b0 =
b100001 >
b10000000000100000100001 e
b0 f
b100000100001 J
b100000100001 k
b100000100001 x
b100000100001 w
b1000001000010000000000000000 M
b1000001000010000000000000000 [
b100000100001 Z
b100000100001 F
b100000100001 c
b100000100001 b
b10 \
b0 ]
b10000000000000000010000 i
b10000000000000000010000 q
b10000000000000000010000 u
b10000000000100000100001 '
b10000000000100000100001 .
b10000000000100000100001 /
b10000000000100000100001 <
b10000000000100000100001 C
b11 -
b10000000000000000001100 &
b10000000000000000001100 4
b10000000000000000001100 L
b10000000000000000001100 g
b10000000000000000001100 l
b10000000000000000001100 r
1!
#82
0!
#84
b10000000000000000010100 h
b100000010000100 m
b10000000100000010011000 j
b10000000100000010011000 o
b10 8
b10 @
b10 B
b10 ^
b11000000001000000100001 e
b1000000100001 J
b1000000100001 k
b1000000100001 x
b1000000100001 w
b10000001000010000000000000000 M
b10000001000010000000000000000 [
b1000000100001 Z
b1000000100001 F
b1000000100001 c
b1000000100001 b
b11 \
b10000000000000000010100 i
b10000000000000000010100 q
b10000000000000000010100 u
b11000000001000000100001 '
b11000000001000000100001 .
b11000000001000000100001 /
b11000000001000000100001 <
b11000000001000000100001 C
b100 -
b10000000000000000010000 &
b10000000000000000010000 4
b10000000000000000010000 L
b10000000000000000010000 g
b10000000000000000010000 l
b10000000000000000010000 r
1!
#86
0!
#88
x1
bx K
bx _
bx *
b11001010111111101011101010111110 X
bx )
bx :
bx N
bx V
bx d
b11001010111111101011101010111110 G
b11001010111111101011101010111110 R
1S
b10000000000000000001000 h
b11001010111111101011101010111110 U
b11001010111111101011101010111110 P
b1000 m
b0 I
b0 Y
b0 a
b11001010111111101011101010111110 $
b11001010111111101011101010111110 ,
b11001010111111101011101010111110 2
b11001010111111101011101010111110 E
b11001010111111101011101010111110 H
b11001010111111101011101010111110 `
b10000000000000000100000 j
b10000000000000000100000 o
b11 ;
b11 ?
b11 A
b11 Q
16
bx 8
bx @
bx B
bx ^
03
b10 =
b10 >
b100000000000000000010 e
b10 f
b10 J
b10 k
b10 x
b10 w
b100000000000000000 M
b100000000000000000 [
b10 Z
b10 F
b10 c
b10 b
b0 \
b10000 ]
b10000000000000000011000 i
b10000000000000000011000 q
b10000000000000000011000 u
b1000000100000000000000000010 '
b1000000100000000000000000010 .
b1000000100000000000000000010 /
b1000000100000000000000000010 <
b1000000100000000000000000010 C
b101 -
b10000000000000000010100 &
b10000000000000000010100 4
b10000000000000000010100 L
b10000000000000000010100 g
b10000000000000000010100 l
b10000000000000000010100 r
1!
#90
0!
#92
b11001010111111101011101010111110 K
b11001010111111101011101010111110 _
b11001010111111101011101010111110 %
b11001010111111101011101010111110 +
b11001010111111101011101010111110 0
b11001010111111101011101010111110 D
0S
01
b1 *
b100 U
b100 P
b100 )
b100 :
b100 N
b100 V
b100 d
b100 X
b100 G
b100 R
b10000000000000000001100 h
b10000 m
b10000000000000000011100 j
b10000000000000000011100 o
b10 ;
b10 ?
b10 A
b10 Q
06
15
1(
19
b1 8
b1 @
b1 B
b1 ^
b101011 =
b100 >
b10000000000000100 e
b101011 f
b100 J
b100 k
b100 x
b100 w
b1000000000000000000 M
b1000000000000000000 [
b100 Z
b100 F
b100 c
b100 b
b1 ]
b10000000000000000001100 i
b10000000000000000001100 q
b10000000000000000001100 u
b10101100000000010000000000000100 '
b10101100000000010000000000000100 .
b10101100000000010000000000000100 /
b10101100000000010000000000000100 <
b10101100000000010000000000000100 C
b10 -
b10000000000000000001000 &
b10000000000000000001000 4
b10000000000000000001000 L
b10000000000000000001000 g
b10000000000000000001000 l
b10000000000000000001000 r
1!
#94
0!
